<?xml version="1.0" encoding="utf-8"?>
<!-- Generator: Adobe Illustrator 23.0.4, SVG Export Plug-In . SVG Version: 6.00 Build 0)  -->
<svg version="1.1" id="Capa_1" xmlns="http://www.w3.org/2000/svg" xmlns:xlink="http://www.w3.org/1999/xlink" x="0px" y="0px"
	 viewBox="0 0 331.5 161.9" style="enable-background:new 0 0 331.5 161.9;" xml:space="preserve">
<style type="text/css">
	.st0{fill:#FAB0C0;}
	.st1{fill:#F7B5CD;}
	.st2{fill:#E86C3C;}
	.st3{fill:#E6B4CA;stroke:#373922;stroke-width:0.7451;stroke-miterlimit:10;}
	.st4{fill:#E6ADBD;}
</style>
<title>almonds</title>
<g>
	<g id="Layer_1_1_">
		<path class="st0" d="M132.4,61.3l-0.5,0.1v2.9C132.9,63,133.2,62.2,132.4,61.3 M132,51.1c-1,1.9-1,1.9,0,2.9
			C132.1,53,133,52.2,132,51.1 M131.3,48.6c2.2-1.1,2.2-1.1,0.9-2.2C131.8,47.2,131.5,47.9,131.3,48.6 M131.7,65.6l-0.6-0.3
			c-0.5,1-0.9,2.1-1.3,3.2c-0.4,1.5-0.6,3-1.7,4.2c-0.2,0.4-0.3,0.8-0.4,1.2C130.3,71.7,130.6,68.5,131.7,65.6 M136,47.2
			c0,0.2,0,0.3-0.1,0.4c1.4,0.7,2.9,1,4.5,0.9c1-0.2,2-0.4,3-0.5c1.3,0,1.4-0.7,1.3-1.8l-3.2-0.3c-0.4,2-0.5,2-2.2,1.8
			C138.2,47.5,137.1,47.4,136,47.2 M145.3,45.2c0.1-0.2,0.1-0.3,0.2-0.5c-0.8-0.4-1.6-0.8-2.4-1c-1.8-0.2-3.6-0.3-5.4-0.3
			c-1.3,0-2.5,0.1-4.1,0.2l1,2C138.2,44.3,141.8,45.4,145.3,45.2 M165.8,58.9c0.9-0.3,1.8-0.6,2.5-0.9c0.8-0.4,1.1-1.1,0.5-1.7
			c-1.3-1.5-2.2-3.8-5-3.1c-0.4,0.1-0.9-0.2-1.4-0.3C162.6,57.1,162.6,57.1,165.8,58.9 M191.2,57.9c0,0.2,0,0.3,0,0.5
			c-1.3-0.1-2.6-0.1-4-0.3c-3.5-0.6-7-0.8-10.6-0.6c-0.8,0-1.6,0.5-2,1.2c3.5,0.2,6.9,0,10,1.2c-1.1,0.2-2.2,0.2-3.2,0.2
			c-2.2-0.1-4.4-0.2-6.5-0.5s-3.6,0.8-4.6,2.5c-1.2,1.8-0.8,3.2,1.2,4.1c0.6,0.3,1.2,0.5,2,0.9c-1.7,1.2-2.7-0.6-4.1-0.4
			c0.4,2.2,2,4,4.2,4.5c2.5,0.9,5.1,1.5,7.7,1.9c3.9,0.5,7.8,0.6,11.7,0.7c5,0.1,9.8-0.9,14.6-1.9c3-0.6,6.1-0.8,8.8-2.3
			c0.9-0.3,1.5-1,1.8-1.9c-1.5,0.5-3,0.9-4.6,1.2c-5.4,0.7-10.8,1.4-16.2,1.9c-5.7,0.8-11.5,0.6-17.1-0.5c-1-0.2-2.1-0.2-3.1-1.4
			c1.2,0.2,1.9,0.3,2.7,0.5c3.9,0.9,7.9,1.2,11.9,0.9c6.7-0.6,13.4-1.4,20.1-2.2c1.9-0.2,3.8-0.8,5.8-1.2
			c-4.6-5.4-17.8-11.6-23.5-11.2c1.4,0.9,3.3,0.9,4.4,2.4c-0.6,0-1.2-0.1-1.8-0.3c-2.7-0.7-5.4-1.6-8.2-2.1c-4-0.8-5-0.6-8.2,0.7
			C184.2,56.8,187.8,56.8,191.2,57.9 M133.4,60.3c0.3,0.8,0.4,1.6,0.4,2.4c-0.5,2-1.1,3.9-2,5.8c-1.2,2.4-1,5.2,0.5,7.5
			c1.7,3,3.9,5.7,6.4,7.9c3.6,3,7.5,5.6,12.2,6.7c3,0.7,5.9,1.4,8.9,2.1c1.2,0.3,2.4,0.5,3.6,0.6c1.9,0.1,2.8-0.6,3.2-2.4
			c1.1-4.5,0.9-9.2-0.4-13.6c-0.7-2-1.5-3.9-2.6-5.8c-2.2-3.8-4.8-7.2-8.5-9.7c-2-1.4-4.4-2.1-6.8-2c3,3,6.9,5.1,7.8,9.5
			c-0.3-0.1-0.5-0.3-0.6-0.6c-2.2-3.2-5.1-5.6-7.9-8.2c-0.7-0.6-1.5-1.1-2.4-1.3c-1.6-0.3-3.3-0.3-4.9-0.7c-1.4-0.4-2.9-0.2-4.2,0.5
			C135.2,59.5,134.4,59.9,133.4,60.3 M215,53.5l3.2-1.5c0.1-0.6,0.1-1,0.1-1.2c0.9-0.3,1.6-0.5,2.1-0.8c1.1-0.5,0.1-1.5,0.4-2.3
			c0.3,0.1,0.6,0.3,0.9,0.2c1.3-0.7,2.1-2.1,2.1-3.5c-0.2-2.2-0.5-4.3-0.7-6.4l0.5-0.1c1.2,1.5,0.8,3.6,1.6,5.7
			c0.4-0.7,0.7-1.4,1-2.1c0.8-2.9,0.8-6.1-0.1-9c-1.9-5.9-4.6-11.4-9.1-16c-0.5-0.6-1-0.9-1.9-0.4c-0.5,0.3-1.1,0.1-1.3-0.4
			c-0.1-0.2-0.1-0.4-0.1-0.6c0.4-1.4-0.5-1.9-1.5-2.4s-2.2-1.4-3.3-2s-2.4-1.4-3.6-1.4s-1.9,0.5-2.1-1.1c0-0.3-0.9-0.6-1.4-0.8
			c-1.2-0.4-2.3-0.8-3.5-1.1l-12.9-3.9c0.2,0.7,0.3,1,0.4,1.7l-2-0.4l0.7-1.5c-2.9-0.4-5.6-0.8-8.3-1c-2.3-0.4-4.6,1.1-5.1,3.3
			c-0.4,1.6-0.7,3.3-0.9,5l1.9,1.1c-0.1,0.2-0.3,0.4-0.4,0.6l-1.6,0.1c0.2,1.8-0.7,3.6,0.9,4.8c-0.3,0.7-0.6,1.5-0.7,2.3
			c0.1,6.4,1.5,12.8,4.3,18.6c2.3,5,5.6,9.4,9.8,12.9c2.7,2.4,6,4.1,9.6,4.7c4.4,0.6,8.7,1.8,12.7,3.6c1.8,0.8,1.8,0.7,3.3-0.7
			c-0.9-0.7-2.4-0.7-2.9-2.4c0.8,0.3,1.4,0.5,2,0.7c2.7,1.2,3.1,1.1,4.7-1.2c-3.6-2.3-5.3-5.7-6-9.7c0.7,0.9,1.2,1.8,1.7,2.8
			C210.9,49.9,212.1,52.5,215,53.5L215,53.5z M156.1,43.2L156.1,43.2c1.4,1.1,2.8,2.1,4.3,3c0.1-0.4,0.2-0.8,0.3-1
			c0.7,0.3,1.2,0.8,1.7,0.7c4.4-0.8,8.6-2.5,12.3-5c0.2-0.2,0.3-0.4,0.4-0.6c-0.1-0.5-0.3-1-0.6-1.5c-1.8-2.3-2.3-5.1-3.2-7.7
			c-1.4-4-2.1-8.2-2.1-12.4c-0.1-2.7-0.2-5.3-0.1-8c0-1.8,0.4-3.6,0.6-5.5c-3.4,0.3-6.7,1.3-9.8,2.8c-4,2-7.5,4.9-10.2,8.4
			c-1.6,2.1-3.1,4.2-4.5,6.5c-1.8,3.1-2.5,6.6-3,10.1c-0.2,2.3-0.1,4.6,0.5,6.9c3.1,0.5,5.8,0.9,8.7,1.2c0.6,0,1.2-0.1,1.7-0.2
			C153.6,42.3,154.9,42.8,156.1,43.2 M132.6,43.1c0.8-0.2,1.7-0.3,2.5-0.6c2.2-0.6,4.3,0.2,6.5,0c1.7-0.1,3.3,0.4,4.6,1.5
			c1.1,0.9,2.3,1.4,3.7,1.6c1.9,0.3,3.8,1.1,5.3,2.3c1.8,1.3,3.8,2.4,5.8,3.4c0.1-0.3,0.1-0.5,0.1-0.6c-1.8-4.3-5.6-7.5-10.1-8.6
			c-3.5-0.9-7.2-1.2-10.8-1.1c-4.3,0.1-8.6,0.4-12.8,0.2c-3.2-0.2-6.4,0.6-9.1,2.2c-1.1,0.6-1.9,1.6-3.2,1.8c-0.5,0-0.9,0.4-0.9,1
			c0,0.1,0,0.2,0,0.3c0.2,0.7-0.3,0.8-0.9,0.7c-0.5,0-0.9,0-1.3,0.3c-1.6,1-3.1,2.3-4.4,3.7c-2.2,2.2-3.2,5.4-2.4,8.4
			c0.9,4.2,3.4,7.9,6.9,10.4c2.3,1.7,4.9,3.1,6.7,5.3c0.5,0.5,1.1,0.9,1.8,1.3l1.5-0.9c0.9,2.6,2.8,2.9,5.5,1.2c0-1.9-2-0.1-2.4-1.3
			c0.2-1.2,1.2-0.3,1.3-0.4c0.5-1.4,0.8-2.4,1.2-3.4c0.4-1,0.8-1.8,1.2-2.7c0.5-1.2,0.9-2.4,1.3-3.6s0.7-2.3,1.1-3.4
			c0.1-0.5,0-1.1,0.3-1.4c1.2-1.4,0.3-2.5-0.4-3.6c-0.6-0.8-1.2-1.6-1.8-2.4c-0.5-0.5-0.4-1.3,0.1-1.8c0.1-0.1,0.2-0.1,0.3-0.2
			c1.4-0.6,1.2-1.6,0.9-2.7c-0.4-1.2-0.2-2.5,0.6-3.4C132.1,45.5,132.2,44.3,132.6,43.1L132.6,43.1z M133.7,53.2
			c0.6-1.6,2.2-2.7,3.9-2.5c2.1,0,4.2,0.4,6.3,0.5c0.9,0.2,1.9,0.2,2.8,0.1c1.3-0.4,2.8-0.2,4,0.5c0.6,0.3,1.2,0.6,1.8,0.1
			c-0.2,0.5,0,0.8,0.5,1.2c1,0.5,1.9,1.3,2.6,2.2c1.3,2,2.8,3.9,3,6.4c0,0.4,0.1,0.8,0.3,1.2c1.4,0.3,2.8,0.5,3.8-0.8l-0.1,0.1
			c0.2,0,0.4,0,0.6,0c2.3-0.8,2.6-1.9,0.6-3.3c-1.3-0.9-2.2-2.3-2.4-3.9c-0.3-2.2-1.9-4.1-4.1-4.8c-1.2-0.6-2.4-1.3-3.5-2.1
			c-0.9-0.5-1.8-0.9-2.7-1.3c-1-0.3-2.1-0.5-3.2-0.6c-1-0.2-1.8,0.2-1.9,0.9c-0.1,0.8,0.5,1.5,1.3,1.6c0,0,0,0,0.1,0
			c0.9,0,1.7,0.2,2.5,0.5c0.6,0.4,1.4,0.6,2.2,0.6c2,0,3.6,1.5,3.7,3.5l0.1-0.1c-0.6,0.1-1.2,0.5-1.8,0c-0.6-0.4-1.2-0.8-1.8-1.1
			c-0.5-0.2-1-0.4-1.5-0.7c-2.6-2-6-2.7-9.1-1.8c-2.9,0.7-5.3,0.3-7.6-1.8c-0.2,0.2-0.4,0.5-0.4,0.6c0.7,1.5,0.1,2.9-0.2,4.3
			C133.6,52.9,133.6,53.1,133.7,53.2c-0.2,0.2-0.5,0.4-0.5,0.5c-0.1,1.4-1,1.7-2.3,1.7l1.7,2.5C133.5,56.6,133.9,54.9,133.7,53.2
			 M184.2,74.9c-1.5-0.3-3-0.5-4.4-0.8c-2.8-0.5-5.5-1.4-8-2.6c-3.9-1.9-4.5-6.9-2.1-10.1c2.8-3.8,6.9-5.6,11.5-6.5
			c2.4-0.5,4.9-0.9,7.3-1.3c-5.1-2.9-9.3-7.1-12.5-12c-4.7,3.1-10.2,5.1-15.8,5.6c0.7,1.3,1.2,2.4,1.9,3.4c0.5,1.1,1.8,1.7,2.9,1.4
			c1.2-0.3,2.4,0.2,3,1.2c0.9,1.3,1.7,2.6,2.4,3.8c-0.5,1.1-1.4,1.9-2.5,2.3c-0.7,0.3-1.2,0.9-1.6,1.5c-0.4,0.9-1.2,1.6-2.2,1.9
			c-1.3,0.5-2.5,1.1-3.7,1.8c0.1,0.3,0.3,0.6,0.4,0.9c1.5,2.3,3.2,4.6,4.5,7c2,3.6,2.9,7.7,2.8,11.8c0,2.3-0.2,4.5-0.6,6.7
			c-0.3,2.1-1.9,3.2-4.1,3.3c-1.9-0.1-3.8-0.4-5.6-1.1c-1.9-0.6-3.9-1.1-5.9-1.5c-6.4-1.1-12.2-4.4-16.4-9.4
			c-1.4-1.7-2.6-3.5-3.7-5.4c-0.3-0.4-0.6-0.9-1-1.4c-0.8,0.8-1.7,1.6-2.6,2.3c-3.9,2-6.2,1.5-10-1.4c-2.6-2-5.1-4.1-7.9-6
			c-2.3-1.5-3.4-4-4.9-6.2c-1.6-2.4-2.2-5.2-1.9-8c0.1-2.2,1.1-4.3,2.8-5.8c3.5-3.1,7.3-5.7,11.4-7.9c0.4-0.2,0.9-0.4,1.4-0.7
			c1.6-1,3.5-1.5,5.3-1.5c5.4,0,10.9-0.2,16.3-0.4c0.2,0,0.5-0.1,0.7-0.1c0.1-0.2,0.1-0.4,0.1-0.6c-1.6-7.2,0.4-13.7,4.3-19.7
			c2.4-3.9,5.6-7.3,9.3-10c4.3-3.1,9.3-5,14.6-5.4c0.1-0.2,0.3-0.4,0.4-0.6c1.5-3.1,3.6-3.9,7.3-3.6c7.4,0.7,14.4,2.9,21.5,5.2
			c4.2,1.4,8.3,3.2,12.3,5.4c4.1,2.2,7.1,5.5,9.9,9c2.2,3,4,6.4,5.2,9.9c1.3,3.5,1.7,7.2,1,10.9c-0.3,1.5-0.9,3-1.8,4.3
			c-1.5,2.2-3.3,4.3-5,6.4c-0.5,0.6-1.1,1.2-1.7,1.5c-2.4,1.2-4.6,2.9-6.4,4.9c-0.9,0.8-1.8,1.5-2.8,2.1c0.8,0.6,1.8,1.2,2.6,1.8
			c2.2,1.5,4.3,3,6.5,4.6c0.6,0.4,0.9,1.2,0.6,1.8c-0.6,1.5-1.9,2.6-3.4,3c-2.3,0.7-4.7,1.3-7.1,1.8c-3.5,0.8-7.1,1.5-10.7,1.9
			c-3.8,0.4-7.7,0.2-11.5,0.3L184.2,74.9L184.2,74.9z"/>
		<path class="st0" d="M214.6,87.8c-1.9-1-3.5-1.8-5.1-2.6c-3-1.7-6-3.5-9.1-5c-6.5-3-13.6-4.4-20.7-4.3c-2.4-0.1-4.7,1-6.2,2.9
			c-0.7,0.9-1,2-1.6,3c-0.9,1.3-0.8,3.1,0.4,4.3c1.2,1.6,2.4,3.2,4.4,3.9c0.3,0.1,0.5,0.5,1,1c-3.4-0.3-4.8-2.8-6.8-4.8
			c-0.1,0.3-0.1,0.6-0.1,0.9s0.1,0.7,0.2,1c1.2,4.5,4.6,7.1,8.7,8.5c4.5,1.6,9.3,2.3,14.1,2.2c1.8-0.1,3.6-0.2,5.4-0.3
			c3.1-0.2,6.1-1.2,8.8-2.9c2.3-1.6,4.4-3.6,6.2-5.9C214.6,89.2,214.6,88.3,214.6,87.8 M184.2,74.9c1.9,0.4,3.8,0.9,5.7,1.2
			c5.4,0.8,10.5,2.7,15.1,5.7c2.9,1.7,5.8,3.1,8.9,4.4c1.9,0.9,2.4,2.7,1,4.2c-1.3,1.7-2.8,3.2-4.4,4.6c-3.3,2.5-7.2,4.1-11.4,4.6
			c-4.5,0.8-8.9,0.3-13.4-0.4c-2.9-0.4-5.8-1.3-8.5-2.5c-3.5-1.6-7.7-5.7-7.2-11c0.2-3.6,2-7,4.9-9.2c2.1-1.6,4.6-1.4,7.1-1.5
			C182.6,75,183.4,74.9,184.2,74.9L184.2,74.9"/>
		<path class="st0" d="M215,53.5c-0.1-0.6,0-1.3,0.1-1.9c1.3-2.5,0.6-5.1,0.4-7.7c-0.3-1.2,0-2.5,0.6-3.6c0.1,0.8,0.1,1.7,0.2,2.5
			c0.2,1.7,0.4,3.5,0.5,5.2C217.2,50.1,216.4,52.1,215,53.5L215,53.5"/>
		<path class="st0" d="M201,52.3c0.9,1.2,2.6,1.6,2.7,3.2C201.2,54.9,200.3,54,201,52.3"/>
		<path class="st0" d="M172.6,19.6c0.6,0.6,1.8,0.8,1.3,1.9c-0.1,0.4-0.6,0.7-1,0.6c-0.1,0-0.3-0.1-0.4-0.2
			C171.5,21.3,171.7,20.5,172.6,19.6"/>
		<path class="st0" d="M198.2,52.1c0.1-0.7,0-1.1,0.2-1.3c0.4-0.4,0.8-0.6,1.3-0.9c0.1,0,0.6,0.4,0.5,0.5c-0.1,0.5-0.3,1-0.6,1.4
			C199.4,52.1,198.9,52,198.2,52.1"/>
		<path class="st0" d="M214.7,42.8c-0.9,0.7-1.5,0.9-2,0.2s-0.3-1.2,0.6-1.7L214.7,42.8"/>
		<path class="st0" d="M216.6,28.8c-0.9,0.2-1.6,0.1-1.6-1c0-0.5,0.3-0.9,0.8-0.9c0.1,0,0.3,0,0.4,0C217.1,27.3,216.9,28,216.6,28.8
			"/>
		<path class="st0" d="M201.7,45.6c-1.8-0.2-2.3-1.3-2.8-2.5C200.7,43,200.8,44.5,201.7,45.6"/>
		<path class="st0" d="M195.8,12.1l-2.2-1.3c1-0.3,1.5-0.6,1.9-0.5C196.1,10.6,196.3,11.2,195.8,12.1"/>
		<path class="st0" d="M174.8,26.7l1.8,1.3C175,28.8,174.8,28.8,174.8,26.7"/>
		<path class="st0" d="M202.6,40.9c-0.6,0.3-1,0.7-1.2,0.6c-0.4-0.2-0.6-0.6-0.9-1c0.3-0.2,0.7-0.7,0.9-0.7
			C201.9,40,202.2,40.5,202.6,40.9"/>
		<path class="st0" d="M187.6,14.2c-0.3-0.9-0.4-1.6,0.6-1.8c0.3,0,0.6,0.2,0.8,0.5C189,13.7,188.6,14.2,187.6,14.2"/>
		<path class="st0" d="M188.1,37.5c0.9-0.9,1.4-1.1,1.9-0.4c0.1,0.2-0.2,0.7-0.3,1L188.1,37.5"/>
		<path class="st0" d="M173.3,2.8l0.9,1c-0.3,0.2-0.6,0.6-0.9,0.6c-0.4-0.1-0.7-0.4-0.8-0.7C172.5,3.5,173,3.2,173.3,2.8"/>
		<path class="st0" d="M207.2,49.2c0.3,0.4,0.7,0.7,0.6,0.9s-0.4,0.6-0.6,0.9c-0.3-0.3-0.8-0.5-0.8-0.8S206.9,49.7,207.2,49.2"/>
		<path class="st0" d="M191.6,15.2c0.7-0.4,1-0.6,1.2-0.6c0.3,0,0.7,0,1,0.1c0.2,0.4,0.1,0.9-0.3,1.1c-0.1,0.1-0.3,0.1-0.4,0.1
			C192.8,16.1,192.4,15.7,191.6,15.2"/>
		<path class="st0" d="M214.6,35.6c-0.2,0.6-0.3,1.2-0.6,2.2c-1.1-1.2-0.8-1.8-0.1-2.3C214.2,35.4,214.4,35.5,214.6,35.6"/>
		<path class="st0" d="M177.5,7.3c1.2-1,1.2-1,1.9,0.4C178.7,8.3,178.2,7.9,177.5,7.3"/>
		<path class="st0" d="M179.6,2.8c-0.4,0.5-0.8,0.8-1.1,1.1c-0.2-0.3-0.6-0.7-0.6-0.9C178.1,2.2,178.6,2.2,179.6,2.8"/>
		<path class="st0" d="M178.6,31c1.3-0.6,1.6,0.1,2.3,0.9C180,32.3,179,31.9,178.6,31"/>
		<path class="st0" d="M186.4,40.8c-1,0.2-1.4-0.2-1.5-0.9c0-0.2,0.4-0.5,0.5-0.5C186.3,39.4,186.5,39.9,186.4,40.8"/>
		<path class="st0" d="M209,39.3c0.8-0.2,1.4-0.1,1.5,0.8c-0.1,0.3-0.3,0.5-0.6,0.5C208.9,40.7,209.1,39.9,209,39.3"/>
		<path class="st0" d="M176.6,14.1c0.7,0.2,1.2,0.5,0.9,1.2c-0.1,0.2-0.6,0.4-0.7,0.3C176.1,15.3,176,14.8,176.6,14.1"/>
		<path class="st0" d="M182.6,41.3l1.3,1.5c-0.3,0.2-0.6,0.5-0.8,0.4C182.3,43,181.9,42.6,182.6,41.3"/>
		<path class="st0" d="M206.6,12.7c0.7,0.3,1.4,0.5,1,1.4c-0.1,0.2-0.3,0.3-0.5,0.3C206.4,14.1,206.1,13.7,206.6,12.7"/>
		<path class="st0" d="M205.8,35.2c-1,0.6-1.6,0.5-1.7-0.3c0-0.1,0.3-0.5,0.3-0.5C204.9,34.7,205.3,34.9,205.8,35.2"/>
		<path class="st0" d="M177.6,35.5c1.4-0.3,1.8,0.1,1.9,0.8c0,0.2-0.4,0.4-0.4,0.4C178.6,36.5,178.2,36.1,177.6,35.5"/>
		<path class="st0" d="M192.6,52.7c-0.1-0.8,0.1-1.4,0.9-1.3c0.2,0,0.6,0.4,0.5,0.5c0,0.6-0.5,1-1,1
			C192.9,52.8,192.8,52.8,192.6,52.7"/>
		<path class="st0" d="M197.7,24.4c-0.1-0.4-0.4-0.6-0.3-0.9c0.1-0.3,0.2-0.6,0.5-0.9c0.1-0.1,0.5,0,0.6,0.1
			c0.1,0.4,0.1,0.7,0.1,1.1C198.5,24.1,198.1,24.2,197.7,24.4"/>
		<path class="st0" d="M181.9,20.7c-1,0.2-1.2-0.3-1.3-1c0-0.1,0.3-0.3,0.4-0.3C181.9,19.5,181.9,20,181.9,20.7"/>
		<path class="st0" d="M221.1,45.8c-0.3-0.4-0.7-0.7-0.6-0.8c0.2-0.4,0.5-0.8,0.8-1.1c0.2,0.2,0.6,0.4,0.5,0.5
			C221.6,44.9,221.4,45.4,221.1,45.8"/>
		<path class="st0" d="M192.2,28.7c0.7,0.7,0.3,1.2-0.2,1.7C191.2,29.6,191.2,29.6,192.2,28.7"/>
		<path class="st0" d="M186.2,27.6l-0.9,1.8C184.3,28.1,184.3,28,186.2,27.6"/>
		<path class="st0" d="M219,30.5c0.8-0.4,1.3-0.1,1.5,0.5c0,0.1-0.2,0.4-0.3,0.5C219.4,31.6,219.2,31.2,219,30.5"/>
		<path class="st0" d="M202.8,24.1l-0.9,1.6C201.4,24.3,201.4,24.3,202.8,24.1"/>
		<path class="st0" d="M193.8,32.2c0.2-0.4,0.5-0.8,0.8-1.1c0.2,0.1,0.4,0.2,0.6,0.4c-0.2,0.4-0.5,0.8-0.7,1.2L193.8,32.2"/>
		<path class="st0" d="M183.7,20.9c0.9-0.2,1.4,0,1.7,1C184.4,22.2,184,21.9,183.7,20.9"/>
		<path class="st0" d="M188.9,46.7c-0.9,1-1.3,0.5-1.8-0.6L188.9,46.7"/>
		<path class="st0" d="M196.1,9.7c-0.8-0.2-1.2-0.5-1-1.2c0-0.1,0.4-0.3,0.5-0.2C196.3,8.4,196.4,8.9,196.1,9.7"/>
		<path class="st0" d="M192.4,43.6c-0.3,0.1-0.6,0.2-0.9,0.2c-0.2,0-0.5-0.5-0.4-0.5c0.2-0.2,0.4-0.5,0.7-0.6c0.4,0.1,0.7,0.2,1,0.4
			C192.6,43.3,192.5,43.5,192.4,43.6"/>
		<path class="st0" d="M213.5,24.1c-0.4,0.2-0.7,0.4-1.1,0.6c-0.1,0-0.3-0.3-0.5-0.5c0.2-0.3,0.5-0.5,0.8-0.7
			C212.8,23.5,213.1,23.8,213.5,24.1"/>
		<path class="st0" d="M197,45h-1.7c0-0.2-0.1-0.6,0-0.7C195.9,43.7,196.3,44.1,197,45"/>
		<path class="st0" d="M194.5,29.4c-0.1-0.4-0.2-0.7-0.3-1.1c0.2-0.1,0.3-0.1,0.5-0.2c0.2,0.3,0.3,0.7,0.5,1L194.5,29.4"/>
		<path class="st0" d="M201.1,16.7l0.1,1.2h-0.7c0-0.4,0-0.8,0.1-1.2H201.1"/>
		<path class="st0" d="M201.9,27c0.3,0.5,0.6,0.7,0.7,0.9s-0.4,0.5-0.5,0.5c-0.3-0.1-0.4-0.3-0.5-0.5
			C201.5,27.7,201.7,27.4,201.9,27"/>
		<path class="st0" d="M192.5,22c0.2,1.4,0.2,1.4-1.2,1.2c0.1-0.3,0.2-0.5,0.3-0.7C191.9,22.3,192.1,22.1,192.5,22"/>
		<path class="st0" d="M210.1,32.5l-0.7-1c0.2-0.1,0.4-0.3,0.6-0.4c0.3,0.3,0.5,0.7,0.7,1L210.1,32.5"/>
		<path class="st0" d="M187.4,8.1c-0.2,0.2-0.4,0.3-0.7,0.5c-0.1,0-0.4-0.3-0.4-0.4c0.1-0.2,0.3-0.4,0.5-0.5
			C186.8,7.6,187.1,7.8,187.4,8.1"/>
		<path class="st0" d="M178.4,26.2l0.2-1.1l0.4,0.1v1.1L178.4,26.2"/>
		<path class="st0" d="M218.4,48.3c0.1-0.3,0.1-0.6,0.2-0.9c0.2,0.1,0.5,0.1,0.5,0.2c0,0.3-0.1,0.6-0.2,0.8L218.4,48.3"/>
		<path class="st0" d="M161.2,13.9l-1.5,1c-0.2-0.3-0.5-0.6-0.6-0.9c-0.1-0.6,0.4-0.9,0.9-0.9C160.3,13.1,160.6,13.4,161.2,13.9"/>
		<path class="st0" d="M159.1,41.4c-1-0.6-1.6-1.8-1.3-3C158.3,39.3,159.7,39.8,159.1,41.4"/>
		<path class="st0" d="M157.8,20.7c0.3,0.5,0.8,0.8,0.7,1.1s-0.6,0.7-0.8,0.7c-0.4-0.1-0.7-0.4-0.8-0.8
			C156.9,21.4,157.4,21.1,157.8,20.7"/>
		<path class="st0" d="M163,23.4c-0.6,1.2-1.1,1.5-1.7,0.8c-0.2-0.2-0.1-0.6-0.2-0.9L163,23.4"/>
		<path class="st0" d="M160.3,32.5c0.4-0.7,0.8-1,1.4-0.5c0.2,0.2,0.2,0.5,0.2,0.7C161.4,33.4,160.9,33,160.3,32.5"/>
		<path class="st0" d="M162.6,28.9l1.9-1.1c-0.2,0.9-0.3,1.2-0.4,1.6L162.6,28.9"/>
		<path class="st0" d="M164.4,22.5c-0.6-0.3-0.9-0.7-0.5-1.3c0.2-0.1,0.4-0.2,0.6-0.1c0.4,0.2,0.5,0.7,0.3,1.1
			C164.6,22.3,164.5,22.4,164.4,22.5"/>
		<path class="st0" d="M156.1,43.2l-0.7-1.8C156.9,41.9,156.9,41.9,156.1,43.2L156.1,43.2"/>
		<path class="st0" d="M155.9,28.6l1.1-0.8c0.1,0.2,0.3,0.5,0.3,0.7C157.2,29.1,156.7,29.1,155.9,28.6"/>
		<path class="st0" d="M153.4,30.8c-0.8-0.3-1.2-0.7-0.7-1.4c0.1-0.1,0.3-0.2,0.5-0.2C153.9,29.5,153.8,30.1,153.4,30.8"/>
		<path class="st0" d="M164.9,34.4c0.2,0.4,0.5,0.8,0.6,1.2c0,0.1-0.3,0.3-0.6,0.5c-0.2-0.3-0.4-0.6-0.6-0.9
			C164.3,35,164.6,34.8,164.9,34.4"/>
		<path class="st0" d="M152.6,26.3c0.2,0.3,0.4,0.6,0.6,0.9c0,0.1-0.3,0.4-0.4,0.4c-0.3-0.1-0.5-0.3-0.8-0.5L152.6,26.3"/>
		<path class="st0" d="M156.5,34.1l-1.2,1.5C155,34.4,155.3,34.1,156.5,34.1"/>
		<path class="st0" d="M149.1,37c-0.3,0.2-0.7,0.4-1.1,0.5c-0.2,0-0.5-0.4-0.5-0.5c0.1-0.3,0.3-0.5,0.6-0.7L149.1,37"/>
		<path class="st0" d="M170.1,36.5c-0.4,0.2-0.7,0.5-0.8,0.4c-0.3-0.2-0.5-0.4-0.6-0.8c0,0,0.4-0.5,0.5-0.4
			C169.6,36,169.9,36.3,170.1,36.5"/>
		<path class="st0" d="M171.3,33.1c-0.6,0.2-0.9,0.4-1.1,0.3c-0.3-0.1-0.5-0.3-0.6-0.5c0-0.2,0.2-0.5,0.3-0.7L171.3,33.1"/>
		<path class="st0" d="M171.2,35.7c0.1-0.3,0.1-0.7,0.2-1l0.5,0.2l-0.4,0.9L171.2,35.7"/>
		<path class="st0" d="M163.2,9.6c-0.3,0.1-0.7,0.2-1,0.2c-0.2,0-0.3-0.2-0.5-0.3c0.2-0.2,0.4-0.5,0.5-0.5S162.7,9.2,163.2,9.6"/>
		<path class="st0" d="M147.8,34.3c-0.3,0-0.7,0-1,0c0,0,0-0.2-0.1-0.4l1.1-0.2C147.8,33.9,147.8,34.1,147.8,34.3"/>
		<path class="st0" d="M148,25c0.2,0.2,0.3,0.4,0.4,0.6c0,0.1-0.3,0.4-0.4,0.3c-0.2-0.1-0.4-0.3-0.6-0.5L148,25"/>
		<path class="st0" d="M163.3,37.6c-0.1,0.3-0.2,0.7-0.3,1l-0.6-0.2c0.1-0.3,0.3-0.7,0.4-1L163.3,37.6"/>
		<path class="st0" d="M171.7,39c-0.2-0.5-0.3-0.7-0.3-1s0.2-0.3,0.4-0.4c0.2,0.2,0.5,0.3,0.5,0.5S172,38.5,171.7,39"/>
		<path class="st0" d="M167.2,31.6l-0.5,0.6c-0.2-0.2-0.3-0.4-0.5-0.6c0,0,0.3-0.4,0.4-0.4S166.9,31.5,167.2,31.6"/>
		<path class="st0" d="M148.7,83.5c-5.3-4-9.8-8.7-12.2-15c2,2.5,3.8,5.2,5.9,7.6s4.5,4.7,6.7,7.1L148.7,83.5"/>
		<path class="st0" d="M137,63.7l10.6,12.2c-1.4-0.3-2.4-1.1-4.2-3.3c-1.2-1.5-2.4-3-3.7-4.4C138.4,66.8,137,65.7,137,63.7"/>
		<path class="st0" d="M149.6,86.2c-5-1.5-9.3-4.8-12.2-9.2C141,80.8,145.3,83.5,149.6,86.2"/>
		<path class="st0" d="M152.8,71.2l-9.1-8.2C146.5,63.7,151.8,68.5,152.8,71.2"/>
		<path class="st0" d="M158.6,74.7c1.9,2.4,3.5,5,3.6,8.2c-1.3-2.7-2.7-5.3-4-8L158.6,74.7"/>
		<path class="st0" d="M164,91.3c-2,1.2-2.4,1.2-3.9-0.3c-0.7-0.6-1.4-1.3-2-2.1c0.6,0.2,1.2,0.4,1.7,0.7c1,0.8,2,1.5,3.5,1.2
			C163.5,90.9,163.7,91.2,164,91.3"/>
		<path class="st0" d="M154.2,77.6l4.4,6c-2.5-1.3-3.7-3.5-5-5.6L154.2,77.6"/>
		<path class="st0" d="M126.5,58.3c-0.2-0.3-0.3-0.4-0.3-0.5c-0.1-0.6-0.2-1.3,0.7-1.5c0.3,0,0.6,0.2,0.8,0.5
			c0.2,0.6-0.2,1.2-0.8,1.4C126.8,58.3,126.7,58.3,126.5,58.3"/>
		<path class="st0" d="M107.4,58.6c-0.6-2.1-0.6-2.1,1.6-1.8L107.4,58.6"/>
		<path class="st0" d="M122.8,58c-0.5,1.1-0.9,2-2.2,1.4C121.3,58.1,121.3,58.1,122.8,58"/>
		<path class="st0" d="M125.8,52.2l-1.2-1.7c0.2-0.1,0.5-0.4,0.7-0.4C125.9,50.4,126.3,50.9,125.8,52.2"/>
		<path class="st0" d="M122.5,69.7c0.5,0.1,0.9,0.2,1.4,0.3c0.3,0.2,0.6,0.5,0.9,0.8C123.6,71.4,122.9,71.3,122.5,69.7"/>
		<path class="st0" d="M122.2,44c-0.8,0.9-1.3,0.4-1.9-0.2C121.2,43,121.7,43.1,122.2,44"/>
		<path class="st0" d="M123.6,64.4l-1.6,0.8c0-0.6-0.1-1.2,0.1-1.3c0.5-0.1,0.9-0.2,1.4-0.2C123.5,64,123.5,64.2,123.6,64.4"/>
		<path class="st0" d="M117.1,55c-0.4-0.2-0.7-0.5-1-0.8c-0.1-0.1,0-0.6,0.2-0.7c0.2-0.1,0.5-0.1,0.7,0.1c0.2,0.3,0.4,0.6,0.6,1
			L117.1,55"/>
		<path class="st0" d="M125.9,49.9c-0.1-1.4,0.2-1.8,1-1.7c0.2,0,0.3,0.4,0.5,0.6L125.9,49.9"/>
		<path class="st0" d="M127.6,54.2c-1.1-0.1-1.5-0.4-1.2-1.1c0.1-0.2,0.7-0.3,0.7-0.2C127.3,53.3,127.4,53.8,127.6,54.2"/>
		<path class="st0" d="M115.8,66.2c0.7-0.4,1.1-0.1,1.4,0.4c0.1,0.1-0.2,0.6-0.4,0.6C116.1,67.2,115.8,66.8,115.8,66.2"/>
		<path class="st0" d="M116.8,68.6c-0.5,0.4-0.7,0.6-0.9,0.7c-0.2,0-0.5,0-0.7-0.1c-0.1-0.2-0.2-0.4-0.1-0.5
			C115.5,68.4,115.5,68.4,116.8,68.6"/>
		<path class="st0" d="M119,67.9c0.2,1.3-0.1,1.6-0.8,1.6c-0.1,0-0.4-0.4-0.4-0.4C118.1,68.8,118.4,68.5,119,67.9"/>
		<path class="st0" d="M127.8,44.9c-0.2,0.1-0.5,0.2-0.7,0.2c-0.3,0-0.6-0.1-0.9-0.1c0-0.3,0.1-0.6,0.1-0.6c0.5-0.1,1-0.1,1.4-0.1
			L127.8,44.9"/>
		<path class="st0" d="M132.6,43.1l-1.4,1c-0.1-0.7-0.1-1-0.2-1.4c0.4,0,0.7,0.1,1.1,0.2C132.2,42.9,132.4,43,132.6,43.1
			C132.5,43.1,132.5,43.1,132.6,43.1"/>
		<path class="st0" d="M113.4,63.8c-0.7-0.2-1.3-0.3-1-1.1c0-0.2,0.3-0.4,0.5-0.3C113.6,62.5,113.7,63,113.4,63.8"/>
		<path class="st0" d="M123.6,55.4c-0.3-0.1-0.6-0.3-0.8-0.6c-0.1-0.2-0.2-0.4-0.2-0.7c0.2-0.1,0.4-0.3,0.5-0.2
			C123.6,54.1,124,54.4,123.6,55.4"/>
		<path class="st0" d="M111.8,52.9c-0.4,0.1-0.8,0.2-1.2,0.2c-0.1-0.1-0.1-0.2-0.1-0.3c0.3-0.2,0.7-0.4,1.1-0.5L111.8,52.9"/>
		<path class="st0" d="M116,47.1c1,0.5,1.3,0.9,0.3,2c-0.1-0.3-0.2-0.6-0.2-0.8C116.1,48,116.1,47.8,116,47.1"/>
		<path class="st0" d="M126.5,68.7c-0.4,0.1-0.7,0.3-1.1,0.4c-0.1-0.1-0.1-0.2-0.2-0.3c0.3-0.2,0.6-0.5,0.9-0.7L126.5,68.7"/>
		<path class="st0" d="M127,61.7c0.3,0.3,0.5,0.6,0.8,0.8l-0.2,0.3c-0.4-0.2-0.7-0.4-1.1-0.6L127,61.7"/>
		<path class="st0" d="M120.1,73.2c-0.2,0.1-0.5,0.3-0.8,0.2s-0.4-0.3-0.5-0.5s0.2-0.4,0.3-0.4c0.2,0,0.5,0.1,0.7,0.2L120.1,73.2"/>
		<path class="st0" d="M115.7,57.1c0.1,0.3,0.2,0.7,0.3,1c-0.1,0.1-0.2,0.1-0.3,0.1c-0.2-0.3-0.4-0.6-0.6-0.9L115.7,57.1"/>
		<path class="st0" d="M190.2,65.3c-2.9,0.2-5.7,0-8.5-0.8c-1.8-0.4-3.6-0.8-5.4-1.3c-1.1-0.1-2.1-0.9-2.4-2
			C179.2,63.6,184.9,63.8,190.2,65.3"/>
		<path class="st0" d="M191.5,67.8c-4.1,0.5-8.2,0.2-12.1-0.8c-1.4-0.3-3.2-0.3-4.6-2.1c2.2,0.5,3.9,1,5.7,1.3s3.7,0.5,5.6,0.7
			s3.6,0.3,5.5,0.5L191.5,67.8"/>
		<path class="st0" d="M187.3,62.7c2.3-0.3,4.6,0.4,6.9,0.4s4.6,0,6.8,0C198.8,64.7,191.1,64.6,187.3,62.7"/>
		<path class="st0" d="M161,58.1c-1.3,1-1.8,0.9-3-0.9C159.1,55.9,159.5,56,161,58.1"/>
		<path class="st0" d="M162.6,62.1c-0.5,0.2-1.1,0.3-1.7,0.3c-0.5-0.1-0.8-0.4-1-0.9c-0.1-0.3,0.4-1,0.8-1c1-0.1,2-0.1,3,0
			C163.1,61.3,162.8,61.7,162.6,62.1L162.6,62.1"/>
		<path class="st0" d="M155.8,53.3c2-0.7,2-0.7,2.8,1.2C156.8,55.2,156.7,55.2,155.8,53.3L155.8,53.3"/>
		<path class="st0" d="M195.4,83.1c-2.6-1.2-5.2-2.5-7.9-3.4s-5.4-1.4-8.4-2.2c1.6-0.4,3.4-0.4,5,0.2c4.1,1,8,2.7,11.6,5L195.4,83.1
			"/>
		<path class="st0" d="M178.4,79.7c4.4,2.3,9.9,2.4,13.9,6.3C189.9,85.4,179.4,80.9,178.4,79.7"/>
		<path class="st0" d="M185.1,88.8c-4.7,0-9.4-2.7-10.3-5.8c1.6,1.1,3.1,2.2,4.8,3.2S183.4,87.2,185.1,88.8"/>
		<path class="st0" d="M192.7,92.9c-4,0.8-9.5-0.5-11.2-2.5L192.7,92.9"/>
		<path class="st0" d="M198.5,93l9.4-0.8c-2.9,1.5-6.2,1.9-9.4,1.2V93"/>
		<path class="st0" d="M195.7,89c-2.9,0.6-6,0-8.5-1.5c1.5-0.3,2.8,0.3,4.1,0.5S193.9,88.6,195.7,89"/>
		<path class="st0" d="M206.8,86.7c-3.1,0.7-5.7,0-7.3-1.6L206.8,86.7"/>
		<path class="st1" d="M92.2,137.6c-1-0.6-1.9-1.1-2.7-1.6c-1.6-1-3.2-2.2-4.9-3.1c-3.5-1.9-7.3-2.9-11.3-3
			c-1.3-0.1-2.7,0.5-3.5,1.5c-0.4,0.5-0.6,1.1-1,1.7c-0.6,0.7-0.5,1.8,0.1,2.5c0.5,1,1.3,1.8,2.3,2.4c0.2,0.1,0.3,0.3,0.5,0.6
			c-1.9-0.3-2.5-1.7-3.6-2.9c0,0.2-0.1,0.3-0.1,0.5s0,0.4,0.1,0.6c0.5,2.4,2.2,4.3,4.6,5.1c2.4,1,5.1,1.6,7.7,1.6c1,0,2,0,3-0.1
			c1.7,0,3.4-0.5,4.9-1.4c1.3-0.9,2.5-2,3.5-3.2C92.1,138.4,92.1,137.9,92.2,137.6 M75.8,129.4c1,0.3,2,0.6,3.1,0.8
			c2.9,0.6,5.7,1.8,8.1,3.6c1.5,1,3.1,1.9,4.8,2.7c0.7,0.3,1.1,1.1,0.8,1.9c-0.1,0.2-0.2,0.4-0.4,0.6c-0.8,0.9-1.6,1.8-2.6,2.5
			c-1.9,1.3-4.1,2.1-6.3,2.4c-2.5,0.2-5,0-7.4-0.6c-1.6-0.3-3.1-0.9-4.6-1.6c-1.9-1-4.1-3.5-3.7-6.5c0.2-2,1.3-3.9,2.9-5.1
			c1.2-0.9,2.6-0.7,3.9-0.7C75,129.5,75.4,129.5,75.8,129.4L75.8,129.4"/>
		<path class="st1" d="M81.8,134.4c-1.4-0.7-2.8-1.6-4.2-2.2c-1.5-0.6-2.9-1-4.5-1.5c0.9-0.2,1.9-0.1,2.8,0.2
			c2.2,0.7,4.3,1.8,6.2,3.1L81.8,134.4"/>
		<path class="st1" d="M72.5,132c2.4,1.4,5.4,1.6,7.5,4C78.7,135.7,73,132.8,72.5,132"/>
		<path class="st1" d="M76,137.4c-2.6-0.1-5.1-1.8-5.5-3.6c0.8,0.7,1.7,1.4,2.5,2C73.9,136.4,75.1,136.5,76,137.4"/>
		<path class="st1" d="M80,140c-2.2,0.4-5.2-0.5-6.1-1.7L80,140"/>
		<path class="st1" d="M83.2,140.1l5.2-0.2c-1.6,0.8-3.5,0.9-5.2,0.5V140.1"/>
		<path class="st1" d="M81.8,137.8c-1.6,0.2-3.3-0.1-4.6-1.1c0.8,0,1.5,0.1,2.2,0.4C80.1,137.2,80.8,137.5,81.8,137.8"/>
		<path class="st1" d="M88,136.7c-1.4,0.4-3,0-4-1.1L88,136.7"/>
		<path class="st1" d="M71.9,129.6c0.2-0.1,0.4-0.1,0.6-0.1c-1.5-2-3.7-3.4-6.2-3.9c-1.4-0.4-2.8-0.7-4.1-1h0.1l0,0l-1.2-0.1
			c-0.7,0.2-1.4,0.4-2.1,0.5c-2.5,0.3-5,0.9-7.4,1.8l-0.5,0.2c-0.1,0.1-0.2,0.1-0.3,0.2h-0.1l-0.3,0.1c-0.2,0.1-0.4,0.2-0.6,0.3
			l0.1,0.1l-1.6,1l-3.8,2.6c-0.4,0.2-0.6,0.7-0.5,1.1c0.3,0.9,1,1.6,1.9,1.9c1.3,0.5,2.6,0.9,4,1.3c2,0.6,4.1,1.1,6.1,1.4
			c2.2,0.3,4.4,0.3,6.6,0.5l1.5,0.1l0,0c0.9-0.1,1.7-0.2,2.6-0.4l1.4-0.3c0-0.2,0-0.5,0-0.7c-0.7,0.2-1.5,0.3-2.2,0.4
			c-2.2,0.2-4.5,0.1-6.7,0.1c-2.8-0.2-5.7-0.7-8.4-1.5c-1.7-0.3-3.4-0.8-5-1.6c-0.5-0.2-0.9-0.6-1-1.2c0.8,0.3,1.7,0.6,2.6,0.8
			c3,0.6,6.1,1.1,9.2,1.6c3.2,0.6,6.5,0.7,9.8,0.2c0.7,0,1.4-0.3,1.8-0.8l-1.5,0.2c-2.3,0.4-4.6,0.5-6.8,0.2
			c-3.8-0.5-7.6-1.2-11.4-1.9c-1.1-0.2-2.1-0.6-3.3-0.9c2.8-3.1,10.5-6.4,13.7-6c-0.8,0.5-1.9,0.5-2.6,1.3c0.3,0,0.7,0,1-0.1
			c1.6-0.3,3.1-0.8,4.7-1c1.6-0.4,3.2-0.2,4.7,0.6c-2.1,0-4.2,0.2-6.2,0.6c0,0.1,0,0.2,0,0.3c0.8,0,1.5,0,2.3-0.1
			c2-0.3,4-0.3,6.1-0.1c0.5,0,0.9,0.3,1.1,0.8c-1.9-0.2-3.9,0-5.8,0.5c0.6,0.1,1.2,0.2,1.8,0.2c1.2,0,2.5,0,3.7-0.1
			C70.5,128.5,71.4,128.9,71.9,129.6z"/>
		<path class="st1" d="M60.9,131.6c1.6,0.2,3.3,0.1,4.9-0.2c1-0.2,2.1-0.4,3.1-0.6c0.7-0.1,1.2-0.5,1.4-1.2
			C67.2,130.8,63.9,130.8,60.9,131.6"/>
		<path class="st1" d="M69.1,131.9c-1,0.2-1.8,0.4-2.7,0.5c-1.1,0.1-2.1,0.2-3.2,0.3c-1.1,0.1-2.1,0.1-3.1,0.1c0,0.1,0,0.2,0,0.3
			c2.3,0.4,4.7,0.3,6.9-0.1c0.6-0.1,1.3-0.2,1.9-0.5C68.9,132.2,69,132,69.1,131.9z"/>
		<path class="st1" d="M62.6,130.1c-1.3-0.2-2.6,0.1-4,0s-2.6-0.1-3.9-0.2C56,130.9,60.3,131.1,62.6,130.1"/>
		<path class="st1" d="M244.6,137.1c1-0.6,1.9-1.1,2.8-1.6c1.7-1,3.3-2.2,5-3.1c3.6-1.9,7.6-2.9,11.6-3.1c1.4-0.1,2.7,0.5,3.6,1.5
			c0.4,0.5,0.6,1.1,1,1.7c0.6,0.7,0.5,1.8-0.1,2.5c-0.5,1-1.4,1.8-2.4,2.4c-0.2,0.1-0.3,0.3-0.5,0.6c1.9-0.3,2.6-1.8,3.7-2.9
			c0,0.2,0.1,0.3,0.1,0.5s0,0.4-0.1,0.6c-0.5,2.4-2.3,4.4-4.7,5.1c-2.5,1-5.3,1.6-8,1.6c-1,0-2.1,0-3.1,0c-1.8,0-3.5-0.5-5.1-1.4
			c-1.4-0.9-2.6-2-3.7-3.2C244.7,137.9,244.7,137.4,244.6,137.1 M261.5,128.9c-1.1,0.3-2.1,0.6-3.2,0.8c-3,0.6-5.9,1.9-8.4,3.7
			c-1.6,1-3.2,2-4.9,2.8c-0.7,0.3-1.1,1.1-0.9,1.8c0.1,0.2,0.2,0.4,0.4,0.6c0.8,0.9,1.7,1.8,2.7,2.5c2,1.3,4.2,2.1,6.6,2.3
			c2.6,0.2,5.1,0,7.6-0.6c1.6-0.3,3.2-0.9,4.7-1.7c1.9-1,4.2-3.5,3.8-6.5c-0.2-2.1-1.3-3.9-3-5.1c-1.3-0.9-2.7-0.7-4.1-0.6
			C262.4,128.9,261.9,128.9,261.5,128.9L261.5,128.9"/>
		<path class="st1" d="M255.4,133.9c1.5-0.8,2.9-1.6,4.4-2.2s3-1,4.7-1.5c-1-0.2-1.9-0.1-2.9,0.3c-2.3,0.7-4.5,1.8-6.4,3.2
			L255.4,133.9"/>
		<path class="st1" d="M265,131.4c-2.5,1.5-5.6,1.7-7.7,4C258.7,135,264.5,132.1,265,131.4"/>
		<path class="st1" d="M261.5,136.8c2.7-0.1,5.3-1.8,5.7-3.6c-0.9,0.7-1.7,1.4-2.6,2C263.6,135.8,262.4,135.9,261.5,136.8"/>
		<path class="st1" d="M257.2,139.4c2.3,0.4,5.4-0.6,6.3-1.8L257.2,139.4"/>
		<path class="st1" d="M254,139.6l-5.4-0.2c1.7,0.8,3.6,0.9,5.4,0.4C254,139.7,254,139.7,254,139.6"/>
		<path class="st1" d="M255.4,137.2c1.7,0.2,3.4-0.2,4.8-1.1c-0.8,0-1.6,0.1-2.3,0.4C257.2,136.7,256.5,136.9,255.4,137.2"/>
		<path class="st1" d="M249.1,136.2c1.5,0.4,3-0.1,4.1-1.1L249.1,136.2"/>
		<path class="st1" d="M265.6,129c-0.2-0.1-0.4-0.1-0.6-0.1c1.6-2.1,3.9-3.5,6.4-4c1.4-0.4,2.9-0.7,4.3-1h-0.1l0,0
			c0.4,0,0.8-0.1,1.2-0.1c0.7,0.2,1.4,0.4,2.1,0.5c2.6,0.2,5.2,0.8,7.6,1.8c0.2,0.1,0.3,0.1,0.5,0.2c0.1,0.1,0.2,0.1,0.3,0.2h0.1
			l0.3,0.1c0.2,0.1,0.4,0.2,0.7,0.2l-0.1,0.1l1.6,1c1.3,0.8,2.6,1.7,4,2.5c0.4,0.2,0.6,0.7,0.4,1.1c-0.3,0.9-1,1.6-1.9,1.9
			c-1.4,0.5-2.7,0.9-4.1,1.3c-2.1,0.6-4.1,1.1-6.3,1.5c-2.2,0.3-4.5,0.4-6.8,0.5l-1.5,0.1l0,0c-0.9-0.1-1.8-0.2-2.6-0.4
			c-0.5-0.1-1-0.2-1.5-0.3c0-0.2,0-0.5,0-0.7c0.8,0.2,1.5,0.3,2.3,0.3c2.3,0.1,4.6,0.1,6.9,0c2.9-0.2,5.8-0.7,8.6-1.6
			c1.8-0.3,3.5-0.9,5.1-1.7c0.5-0.2,0.9-0.6,1-1.2c-0.9,0.3-1.8,0.6-2.7,0.8c-3.1,0.6-6.3,1.1-9.5,1.6c-3.3,0.6-6.8,0.7-10.1,0.2
			c-0.7,0-1.4-0.2-1.9-0.8l1.6,0.2c2.3,0.4,4.7,0.5,7.1,0.2c3.9-0.5,7.9-1.2,11.8-1.9c1.1-0.2,2.2-0.6,3.4-0.9
			c-2.9-3.1-10.9-6.4-14.2-6c0.9,0.5,2,0.5,2.7,1.3c-0.4,0-0.7,0-1.1-0.1c-1.6-0.3-3.2-0.8-4.9-1c-1.6-0.4-3.3-0.2-4.8,0.6
			c2.2,0,4.3,0.2,6.5,0.6c0,0.1,0,0.2,0,0.3c-0.8,0-1.6,0-2.3,0c-2.1-0.3-4.2-0.3-6.3,0c-0.5,0-0.9,0.3-1.2,0.8c2-0.2,4,0,6,0.4
			c-0.6,0.1-1.3,0.2-1.9,0.2c-1.3,0-2.6,0-3.9-0.1C266.9,127.9,266.1,128.3,265.6,129z"/>
		<path class="st1" d="M277,130.9c-1.7,0.2-3.4,0.1-5-0.2c-1.1-0.2-2.2-0.4-3.2-0.6c-0.7-0.1-1.3-0.5-1.5-1.2
			C270.5,130.2,273.8,130.1,277,130.9"/>
		<path class="st1" d="M268.6,131.2c1,0.2,1.9,0.4,2.8,0.5c1.1,0.1,2.2,0.2,3.3,0.2c1.1,0.1,2.2,0.1,3.2,0.1c0,0.1,0,0.2,0,0.3
			c-2.4,0.4-4.8,0.4-7.2-0.1c-0.7,0-1.3-0.2-1.9-0.4C268.8,131.6,268.7,131.4,268.6,131.2z"/>
		<path class="st1" d="M275.2,129.4c1.4-0.3,2.7,0.1,4.1,0s2.7-0.1,4-0.2C282,130.2,277.5,130.4,275.2,129.4"/>
		<g>
			<path class="st2" d="M105.9,128.6c-0.1,0.2-0.2,0.3-0.4,0.4c-0.7,0.5-0.8,0.2-0.8,0c0.4-1.8-2.6-3.3-3.3,1
				c-0.2,0.8-0.3,1.4-0.4,2c-0.2,0.9,0.3,1.9,1.2,1.9c-0.4,1.6-2.9,1.7-3.5,0.1c-0.8,1.7-3.3,1.6-3.4-0.8c1.2,0.1,1.8-0.5,2-1.5
				c1.3-7.1,2.1-12.3,3.2-19.3c0.2-1,0.3-2.1-0.8-2.2c0.5-1.9,2.9-2.2,4.1-0.8c1.2-1.4,3.6-1,4.1,0.8c-1.1,0-1,1.1-0.8,2.2
				c0.9,6.6,2,12.5,3.3,19.3c0.2,0.9,0.9,1.6,2.1,1.5c-0.3,2.3-2.6,2.5-3.5,0.8c-0.6,1.6-3.2,1.6-3.6,0c0.9,0,1.4-1,1.2-1.9
				C106.3,131,106.1,129.9,105.9,128.6z M103.7,114.7c-0.5,2.1-1,6.3-1.6,10.3c1-0.5,2.1-0.7,3.1-0.2c0,0,0,0,0,0
				C104.7,120.9,104.2,116.8,103.7,114.7z"/>
			<path class="st2" d="M121.9,128.2c1.8-0.1,2.5-2.5,2-3.5c2.6-0.1,3,3.5,1,4.4c1.3,0.2,1.8,1.9,0.5,2.9c0-0.9-2-0.7-3-0.7
				c-1.5,0-3.2,0.2-4.6-0.1c-0.5-0.1-1-0.3-1.3-0.8c-0.3,0.5-1,0.9-1.7,0.9c-1,0-1.9-0.8-2-1.9c0.9,0,1.8-0.7,1.8-1.6
				c0-4.9,0-7.3,0-12.1c0-1-0.7-1.8-1.8-1.8c0-1.1,0.9-1.9,2-1.9c0.8,0,1.4,0.4,1.7,0.9c0.3-0.5,1-0.9,1.7-0.9c1.1,0,2,0.8,2,1.9
				c-1.1,0-1.8,0.8-1.8,1.8c0,4.4,0,6.3,0,10.6C118.4,128.2,119.7,128.2,121.9,128.2z"/>
			<path class="st2" d="M137.9,123.2c1.4-3.3,1.2-2.9,2.9-7c0.4-0.9,0.3-2.1-0.6-2.3c0-1,0.9-1.9,2-1.9c0.7,0,1.3,0.4,1.7,1
				c0.3-0.6,1-1,1.7-1c1.1,0,2,0.9,2,1.9c-0.9,0-1.8,0.7-1.8,1.6c0,4.8,0,7.1,0,12.1c0,1,0.7,1.8,1.8,1.8c0,1-0.9,1.9-2,1.9
				c-0.7,0-1.3-0.4-1.7-1c-0.4,0.6-1,1-1.7,1c-1.1,0-2-0.9-2-1.9c1,0,1.8-0.8,1.8-1.8v-6.3c-0.9,2.1-1.9,4.6-1.8,5.2
				c0.1,0.3,0.3,0.6,0.8,0.7c-0.6,1.4-2.4,1.5-3,0.5c-0.7,1-2.4,0.9-3-0.5c0.5-0.1,0.7-0.3,0.8-0.7c0.1-0.6-0.9-3.1-1.8-5.2v6.3
				c0,1,0.7,1.8,1.8,1.8c0,1-0.9,1.9-2,1.9c-0.7,0-1.3-0.4-1.7-1c-0.3,0.6-1,1-1.7,1c-1,0-1.9-0.9-2-1.9c1.1,0,1.8-0.8,1.8-1.8
				c0-4.9,0-7.3,0-12.1c0-0.9-0.9-1.6-1.8-1.6c0-1,0.9-1.9,2-1.9c0.8,0,1.4,0.4,1.7,1c0.3-0.6,1-1,1.7-1c1.1,0,2,0.9,2,1.9h0
				c-0.9,0.2-1,1.4-0.6,2.3C136.7,120.3,136.6,119.9,137.9,123.2z"/>
			<path class="st2" d="M155.2,126.2c0,1.9,1.3,1.9,3.5,1.8c1.8,0,2.5-2.4,2-3.3c2.6-0.1,3,3.5,1,4.4c1.3,0.2,1.8,1.9,0.5,2.9
				c0-0.9-2-0.7-3-0.7c-1.5,0-3.2,0.2-4.6-0.1c-0.5-0.1-1-0.3-1.3-0.8c-0.3,0.5-1,0.9-1.7,0.9c-1,0-1.9-0.8-2-1.9
				c0.9,0,1.8-0.7,1.8-1.6v-2.8c0-3.7,0-5.4,0-9.5c0-0.9-0.9-1.5-1.8-1.6c0-1.1,0.9-2,2-2c0.8,0,1.4,0.4,1.7,1
				c0.3-0.5,0.8-0.7,1.3-0.8c1.4-0.3,3.5-0.1,5-0.1c1,0,2.5,0.2,2.8-0.6c1,0.7,0.9,1.8-0.3,2.5c2,1.2,0.6,3.4-1,3.5
				c0-0.9-0.7-2.4-1.6-2.4h-1.8c-2,0-2.6,0-2.6,1.8v1.2c0,0.7,0,1.5,0,2.2c1-0.9,2.6-1.3,3.9-0.7c1.6,0.8,1.7,3,0.2,4.3
				c-0.4,0.3-0.6,0.3-0.8,0.2c0,0,0.1-0.3,0.1-0.6c0-1.1-1-1.7-1.9-1.4c-1,0.4-1.5,1.6-1.5,2.7v1.1V126.2z"/>
			<path class="st2" d="M173.9,113.9c0-1,0.9-1.9,2-1.9c0.7,0,1.3,0.4,1.7,1c0.3-0.6,1-1,1.7-1c1,0,1.9,0.9,2,1.9
				c-0.9,0-1.8,0.7-1.8,1.6c0,4.8,0,7.1,0,12.1c0,1,0.7,1.8,1.8,1.8c0,1-0.9,1.9-2,1.9c-0.8,0-1.4-0.4-1.7-1c-0.3,0.6-1,1-1.7,1
				c-1.1,0-2-0.9-2-1.9c1.1,0,1.8-0.8,1.8-1.8v-2.2c-1,1.5-3.3,1.6-4.2-0.5c2.8,0.2-0.6-3.8-0.6-3.8v6.5c0,1,0.7,1.8,1.8,1.8
				c0,1-0.9,1.9-2,1.9c-0.7,0-1.3-0.4-1.7-1c-0.3,0.6-1,1-1.7,1c-1,0-1.9-0.9-2-1.9c1.1,0,1.8-0.8,1.8-1.8c0-4.9,0-7.3,0-12.1
				c0-0.9-0.9-1.6-1.8-1.6c0-1,0.9-1.9,2-1.9c0.8,0,1.4,0.4,1.7,1c0.3-0.6,1-1,1.7-1c1.1,0,2,0.9,2,1.9c-1.3,0.1-1.7,0.8-1.3,1.9
				c0.7,2.3,3.3,4.4,4.3,6.5v-6.8C175.7,114.6,174.9,114,173.9,113.9z"/>
			<path class="st2" d="M197.5,124.1c-0.2,2.3-0.9,4.4-2.3,5.8c-2,1.9-5.9,2.1-8.1,0.5c-0.3,0.5-1,1-1.7,1c-1,0-1.9-0.9-2-2
				c1.1,0,1.8-0.8,1.8-1.8v-12.1c0-0.9-0.9-1.5-1.8-1.6c0-1.1,0.9-1.9,2-1.9c0.8,0,1.4,0.4,1.7,1c0.9-1,2.3-1.4,3.8-1.4
				c4.6,0.2,6,3.2,6.6,6.9C197.7,120.6,197.7,122.2,197.5,124.1z M191.7,127.9c2.9-0.8,2.9-11.6,0-12.8c-1.2-0.4-2.8-0.1-2.8,1.5
				v2.5v3.1c1.3-0.6,2.9,0.1,2.8,0.8c-1.3,0.3-1.8,1.7-1.8,2.9C190.1,127.5,190.9,128.2,191.7,127.9z"/>
			<path class="st2" d="M204.5,127.6c0,1,0.7,1.8,1.8,1.8c0,1-0.9,1.9-2,1.9c-0.7,0-1.3-0.4-1.7-1c-0.3,0.6-1,1-1.7,1
				c-1,0-1.9-0.9-2-1.9c1.1,0,1.8-0.8,1.8-1.8c0-4.9,0-7.3,0-12.1c0-0.9-0.9-1.6-1.8-1.6c0-1,0.9-1.9,2-1.9c0.8,0,1.4,0.4,1.7,1
				c0.7-1.1,2.7-1.4,3.8-1.3c1.9,0,3.3,0.8,4.2,1.9c1.4,1.6,1.8,4.4,1.1,6.8c-0.5,1.5-1.4,2.8-2.8,3.5c-0.2,0.1-0.4,0.2-0.7,0.2
				c1.6,2.5,2.6,5.7,4.8,5.2c0.1,1.3-1,2.8-2.5,2.9c-3.1,0.2-3.8-4.8-5.6-7.5c-0.1-0.2-0.2-0.3-0.4-0.5h0V127.6z M206.7,114
				c-1-0.2-2.1,0.5-2.1,1.6c0,0.2,0,1.7,0,2.5c1.1-0.4,2.2,0.1,2.3,1.2c0,0.1-0.2,0.1-0.3,0.1c-1.8,0.1-1.8,2.8-0.1,2.8
				C208.8,122.3,209.5,114.6,206.7,114z"/>
			<path class="st2" d="M243.7,129.4c1.2,1.5,1.4,3.5-0.1,5.3c-1.3,1.5-3.3,2.2-5.1,2.4c-6.4,0.9-11.3-4-13.4-10.6
				c-0.1,0.3-0.2,0.5-0.4,0.8c-0.5,0.7-0.8,0.4-0.8,0.2c-0.1-1.7-2.4-1.5-2.9,0.4c-0.1,0.5-0.2,1-0.1,1.5c0.1,0.5,0.6,1,1.2,1
				c-0.4,1.5-3,1.7-3.6,0.1c-0.8,1.7-3.3,1.5-3.3-0.8c1.2,0.1,1.8-0.5,2-1.5c1.1-4.9,1.7-7.3,2.8-12.2c0.2-1,0.3-1.8-0.8-1.8
				c0.5-2.2,2.9-2.4,4.1-1c1.2-1.4,3.6-1.1,4.1,1c-1.1,0-1.1,0.8-0.8,1.8c1.2,5.2,1.8,12.6,6.7,15.6
				C236.9,133.5,241.4,132.7,243.7,129.4z M224.5,123.8l-1.3-5.5l-1.2,5.1C223,122.9,223.9,123.2,224.5,123.8z M235.3,126.9
				c1.3,1.5,3.9,1,4.5-0.8c0.7-2.2-1.3-2.8-3.1-3.7c-1.2-0.6-2.3-1.3-3.1-1.9c-2.7-2.1-2.4-6,0.3-7.8c3.1-2,8.9-1.2,9.3,3.5
				c0.2,0.7,0.6,0.5,1.4,0.5c-0.5,1.6-1.2,1.5-1.8,1.5c-0.5,0.9-1.5,1.4-3,1.1c1.1-2.4-0.2-4.3-2-4.3c-1,0-1.5,0.4-1.7,1.1
				c-0.9,2.7,2.7,3,5.2,4.6c3.7,2.3,3.6,6.8,0,9.1c-1.2,0.8-2.7,1.1-4.3,1c-3.1-0.2-5.8-1.8-5.5-5.7c0-0.2,0.1-0.5,0.2-0.8
				c0.3-1.4,0.2-2.3-0.6-2.4c1-1,2.3-0.6,2.6,0.4c1.3-0.5,2.7,0,3.2,1.7C235.5,124,234.1,125.6,235.3,126.9z"/>
		</g>
		<g>
			<path class="st3" d="M103.5,127.7c-0.1,0.2-0.2,0.3-0.4,0.4c-0.7,0.5-0.8,0.2-0.8,0c0.4-1.8-2.6-3.3-3.3,1
				c-0.2,0.8-0.3,1.4-0.4,2c-0.2,0.9,0.3,1.9,1.2,1.9c-0.4,1.6-2.9,1.7-3.5,0.1c-0.8,1.7-3.3,1.6-3.4-0.8c1.2,0.1,1.8-0.5,2-1.5
				c1.3-7.1,2.1-12.3,3.2-19.3c0.2-1,0.3-2.1-0.8-2.2c0.5-1.9,2.9-2.2,4.1-0.8c1.2-1.4,3.6-1,4.1,0.8c-1.1,0-1,1.1-0.8,2.2
				c0.9,6.6,2,12.5,3.3,19.3c0.2,0.9,0.9,1.6,2.1,1.5c-0.3,2.3-2.6,2.5-3.5,0.8c-0.6,1.6-3.2,1.6-3.6,0c0.9,0,1.4-1,1.2-1.9
				C103.9,130.2,103.7,129,103.5,127.7z M101.3,113.8c-0.5,2.1-1,6.3-1.6,10.3c1-0.5,2.1-0.7,3.1-0.2c0,0,0,0,0,0
				C102.3,120,101.8,115.9,101.3,113.8z"/>
			<path class="st3" d="M119.5,127.3c1.8-0.1,2.5-2.5,2-3.5c2.6-0.1,3,3.5,1,4.4c1.3,0.2,1.8,1.9,0.5,2.9c0-0.9-2-0.7-3-0.7
				c-1.5,0-3.2,0.2-4.6-0.1c-0.5-0.1-1-0.3-1.3-0.8c-0.3,0.5-1,0.9-1.7,0.9c-1,0-1.9-0.8-2-1.9c0.9,0,1.8-0.7,1.8-1.6
				c0-4.9,0-7.3,0-12.1c0-1-0.7-1.8-1.8-1.8c0-1.1,0.9-1.9,2-1.9c0.8,0,1.4,0.4,1.7,0.9c0.3-0.5,1-0.9,1.7-0.9c1.1,0,2,0.8,2,1.9
				c-1.1,0-1.8,0.8-1.8,1.8c0,4.4,0,6.3,0,10.6C116,127.3,117.3,127.4,119.5,127.3z"/>
			<path class="st3" d="M135.6,122.4c1.4-3.3,1.2-2.9,2.9-7c0.4-0.9,0.3-2.1-0.6-2.3c0-1,0.9-1.9,2-1.9c0.7,0,1.3,0.4,1.7,1
				c0.3-0.6,1-1,1.7-1c1.1,0,2,0.9,2,1.9c-0.9,0-1.8,0.7-1.8,1.6c0,4.8,0,7.1,0,12.1c0,1,0.7,1.8,1.8,1.8c0,1-0.9,1.9-2,1.9
				c-0.7,0-1.3-0.4-1.7-1c-0.4,0.6-1,1-1.7,1c-1.1,0-2-0.9-2-1.9c1,0,1.8-0.8,1.8-1.8v-6.3c-0.9,2.1-1.9,4.6-1.8,5.2
				c0.1,0.3,0.3,0.6,0.8,0.7c-0.6,1.4-2.4,1.5-3,0.5c-0.7,1-2.4,0.9-3-0.5c0.5-0.1,0.7-0.3,0.8-0.7c0.1-0.6-0.9-3.1-1.8-5.2v6.3
				c0,1,0.7,1.8,1.8,1.8c0,1-0.9,1.9-2,1.9c-0.7,0-1.3-0.4-1.7-1c-0.3,0.6-1,1-1.7,1c-1,0-1.9-0.9-2-1.9c1.1,0,1.8-0.8,1.8-1.8
				c0-4.9,0-7.3,0-12.1c0-0.9-0.9-1.6-1.8-1.6c0-1,0.9-1.9,2-1.9c0.8,0,1.4,0.4,1.7,1c0.3-0.6,1-1,1.7-1c1.1,0,2,0.9,2,1.9h0
				c-0.9,0.2-1,1.4-0.6,2.3C134.4,119.5,134.2,119.1,135.6,122.4z"/>
			<path class="st3" d="M152.9,125.4c0,1.9,1.3,1.9,3.5,1.8c1.8,0,2.5-2.4,2-3.3c2.6-0.1,3,3.5,1,4.4c1.3,0.2,1.8,1.9,0.5,2.9
				c0-0.9-2-0.7-3-0.7c-1.5,0-3.2,0.2-4.6-0.1c-0.5-0.1-1-0.3-1.3-0.8c-0.3,0.5-1,0.9-1.7,0.9c-1,0-1.9-0.8-2-1.9
				c0.9,0,1.8-0.7,1.8-1.6v-2.8c0-3.7,0-5.4,0-9.5c0-0.9-0.9-1.5-1.8-1.6c0-1.1,0.9-2,2-2c0.8,0,1.4,0.4,1.7,1
				c0.3-0.5,0.8-0.7,1.3-0.8c1.4-0.3,3.5-0.1,5-0.1c1,0,2.5,0.2,2.8-0.6c1,0.7,0.9,1.8-0.3,2.5c2,1.2,0.6,3.4-1,3.5
				c0-0.9-0.7-2.4-1.6-2.4h-1.8c-2,0-2.6,0-2.6,1.8v1.2c0,0.7,0,1.5,0,2.2c1-0.9,2.6-1.3,3.9-0.7c1.6,0.8,1.7,3,0.2,4.3
				c-0.4,0.3-0.6,0.3-0.8,0.2c0,0,0.1-0.3,0.1-0.6c0-1.1-1-1.7-1.9-1.4c-1,0.4-1.5,1.6-1.5,2.7v1.1V125.4z"/>
			<path class="st3" d="M171.6,113.1c0-1,0.9-1.9,2-1.9c0.7,0,1.3,0.4,1.7,1c0.3-0.6,1-1,1.7-1c1,0,1.9,0.9,2,1.9
				c-0.9,0-1.8,0.7-1.8,1.6c0,4.8,0,7.1,0,12.1c0,1,0.7,1.8,1.8,1.8c0,1-0.9,1.9-2,1.9c-0.8,0-1.4-0.4-1.7-1c-0.3,0.6-1,1-1.7,1
				c-1.1,0-2-0.9-2-1.9c1.1,0,1.8-0.8,1.8-1.8v-2.2c-1,1.5-3.3,1.6-4.2-0.5c2.8,0.2-0.6-3.8-0.6-3.8v6.5c0,1,0.7,1.8,1.8,1.8
				c0,1-0.9,1.9-2,1.9c-0.7,0-1.3-0.4-1.7-1c-0.3,0.6-1,1-1.7,1c-1,0-1.9-0.9-2-1.9c1.1,0,1.8-0.8,1.8-1.8c0-4.9,0-7.3,0-12.1
				c0-0.9-0.9-1.6-1.8-1.6c0-1,0.9-1.9,2-1.9c0.8,0,1.4,0.4,1.7,1c0.3-0.6,1-1,1.7-1c1.1,0,2,0.9,2,1.9c-1.3,0.1-1.7,0.8-1.3,1.9
				c0.7,2.3,3.3,4.4,4.3,6.5v-6.8C173.3,113.8,172.5,113.1,171.6,113.1z"/>
			<path class="st3" d="M195.1,123.3c-0.2,2.3-0.9,4.4-2.3,5.8c-2,1.9-5.9,2.1-8.1,0.5c-0.3,0.5-1,1-1.7,1c-1,0-1.9-0.9-2-2
				c1.1,0,1.8-0.8,1.8-1.8v-12.1c0-0.9-0.9-1.5-1.8-1.6c0-1.1,0.9-1.9,2-1.9c0.8,0,1.4,0.4,1.7,1c0.9-1,2.3-1.4,3.8-1.4
				c4.6,0.2,6,3.2,6.6,6.9C195.4,119.7,195.3,121.3,195.1,123.3z M189.3,127.1c2.9-0.8,2.9-11.6,0-12.8c-1.2-0.4-2.8-0.1-2.8,1.5
				v2.5v3.1c1.3-0.6,2.9,0.1,2.8,0.8c-1.3,0.3-1.8,1.7-1.8,2.9C187.7,126.6,188.5,127.3,189.3,127.1z"/>
			<path class="st3" d="M202.1,126.8c0,1,0.7,1.8,1.8,1.8c0,1-0.9,1.9-2,1.9c-0.7,0-1.3-0.4-1.7-1c-0.3,0.6-1,1-1.7,1
				c-1,0-1.9-0.9-2-1.9c1.1,0,1.8-0.8,1.8-1.8c0-4.9,0-7.3,0-12.1c0-0.9-0.9-1.6-1.8-1.6c0-1,0.9-1.9,2-1.9c0.8,0,1.4,0.4,1.7,1
				c0.7-1.1,2.7-1.4,3.8-1.3c1.9,0,3.3,0.8,4.2,1.9c1.4,1.6,1.8,4.4,1.1,6.8c-0.5,1.5-1.4,2.8-2.8,3.5c-0.2,0.1-0.4,0.2-0.7,0.2
				c1.6,2.5,2.6,5.7,4.8,5.2c0.1,1.3-1,2.8-2.5,2.9c-3.1,0.2-3.8-4.8-5.6-7.5c-0.1-0.2-0.2-0.3-0.4-0.5h0V126.8z M204.3,113.2
				c-1-0.2-2.1,0.5-2.1,1.6c0,0.2,0,1.7,0,2.5c1.1-0.4,2.2,0.1,2.3,1.2c0,0.1-0.2,0.1-0.3,0.1c-1.8,0.1-1.8,2.8-0.1,2.8
				C206.4,121.4,207.1,113.7,204.3,113.2z"/>
			<path class="st3" d="M241.4,128.5c1.2,1.5,1.4,3.5-0.1,5.3c-1.3,1.5-3.3,2.2-5.1,2.4c-6.4,0.9-11.3-4-13.4-10.6
				c-0.1,0.3-0.2,0.5-0.4,0.8c-0.5,0.7-0.8,0.4-0.8,0.2c-0.1-1.7-2.4-1.5-2.9,0.4c-0.1,0.5-0.2,1-0.1,1.5c0.1,0.5,0.6,1,1.2,1
				c-0.4,1.5-3,1.7-3.6,0.1c-0.8,1.7-3.3,1.5-3.3-0.8c1.2,0.1,1.8-0.5,2-1.5c1.1-4.9,1.7-7.3,2.8-12.2c0.2-1,0.3-1.8-0.8-1.8
				c0.5-2.2,2.9-2.4,4.1-1c1.2-1.4,3.6-1.1,4.1,1c-1.1,0-1.1,0.8-0.8,1.8c1.2,5.2,1.8,12.6,6.7,15.6
				C234.5,132.7,239,131.8,241.4,128.5z M222.1,122.9l-1.3-5.5l-1.2,5.1C220.7,122.1,221.6,122.3,222.1,122.9z M232.9,126.1
				c1.3,1.5,3.9,1,4.5-0.8c0.7-2.2-1.3-2.8-3.1-3.7c-1.2-0.6-2.3-1.3-3.1-1.9c-2.7-2.1-2.4-6,0.3-7.8c3.1-2,8.9-1.2,9.3,3.5
				c0.2,0.7,0.6,0.5,1.4,0.5c-0.5,1.6-1.2,1.5-1.8,1.5c-0.5,0.9-1.5,1.4-3,1.1c1.1-2.4-0.2-4.3-2-4.3c-1,0-1.5,0.4-1.7,1.1
				c-0.9,2.7,2.7,3,5.2,4.6c3.7,2.3,3.6,6.8,0,9.1c-1.2,0.8-2.7,1.1-4.3,1c-3.1-0.2-5.8-1.8-5.5-5.7c0-0.2,0.1-0.5,0.2-0.8
				c0.3-1.4,0.2-2.3-0.6-2.4c1-1,2.3-0.6,2.6,0.4c1.3-0.5,2.7,0,3.2,1.7C233.1,123.2,231.8,124.7,232.9,126.1z"/>
			<path class="st4" d="M122.9,144.6h-2.7l0.2-0.7h2.7L122.9,144.6z"/>
			<path class="st4" d="M129.3,140.6c0.8,0,1.5,0.1,2,0.5c0.5,0.3,0.8,0.9,0.8,1.7c0,1.5-1.2,2.3-2.3,2.4c-0.2,0-0.4,0-0.5,0
				l-0.9-0.2v1.9c0,1,0.1,1.1,1.2,1.1v0.3h-3.2V148c1-0.1,1-0.2,1-1.2v-4.8c0-1-0.1-1.1-1-1.2v-0.3H129.3z M128.3,144.6
				c0.2,0.1,0.5,0.1,0.9,0.1c0.8,0,1.7-0.4,1.7-1.9c0-1.3-0.8-1.8-1.8-1.8c-0.3,0-0.6,0.1-0.7,0.1c-0.1,0.1-0.1,0.2-0.1,0.6V144.6z"
				/>
			<path class="st4" d="M139.6,148.4c-0.1,0-0.3,0-0.4,0c-0.9,0-1.4-0.3-1.9-1.1c-0.4-0.6-0.8-1.3-1.2-1.9c-0.2-0.3-0.4-0.5-1-0.5
				h-0.4v1.9c0,1,0.1,1.1,1.1,1.2v0.3h-3.1V148c1-0.1,1.1-0.1,1.1-1.2v-4.8c0-1-0.1-1-1-1.1v-0.3h3c0.9,0,1.5,0.1,1.9,0.4
				c0.5,0.3,0.8,0.8,0.8,1.6c0,1-0.6,1.7-1.5,2c0.2,0.4,0.7,1.2,1.1,1.7c0.4,0.6,0.7,0.9,1,1.2c0.3,0.4,0.6,0.5,0.9,0.6L139.6,148.4
				z M135.2,144.6c0.6,0,1-0.1,1.3-0.3c0.5-0.4,0.7-0.8,0.7-1.5c0-1.3-0.8-1.8-1.8-1.8c-0.3,0-0.5,0-0.6,0.1
				c-0.1,0.1-0.1,0.2-0.1,0.5v2.9H135.2z"/>
			<path class="st4" d="M147.3,140.9c-0.7,0-1,0.2-1,0.7c0,0.3-0.1,0.8-0.1,1.9v1c0,1.4-0.2,2.4-0.9,3.1c-0.5,0.6-1.3,0.8-2.1,0.8
				c-0.7,0-1.4-0.2-1.9-0.6c-0.7-0.5-1-1.4-1-2.8v-3c0-1.1-0.1-1.1-1-1.2v-0.3h3.1v0.3c-0.9,0.1-1,0.1-1,1.2v2.7c0,1.9,0.8,3,2.2,3
				c1.7,0,2.3-1.4,2.3-3.4v-0.9c0-1.1,0-1.6-0.1-2c-0.1-0.5-0.3-0.6-1.2-0.7v-0.3h2.8V140.9z"/>
			<path class="st4" d="M155.7,140.9c-0.7,0-1,0.2-1,0.7c0,0.4-0.1,0.9-0.1,2v4.8h-0.4l-5.1-6.2h0v3c0,1.1,0,1.7,0.1,2
				c0.1,0.6,0.3,0.8,1.1,0.8v0.3h-2.8V148c0.7,0,1-0.2,1-0.8c0-0.4,0.1-0.9,0.1-2v-2.6c0-0.9,0-0.9-0.2-1.2
				c-0.2-0.3-0.5-0.4-1.1-0.4v-0.3h1.8l5,6h0v-2.9c0-1.1,0-1.6-0.1-2c-0.1-0.5-0.3-0.7-1.2-0.7v-0.3h2.8V140.9z"/>
			<path class="st4" d="M164.2,140.9c-0.7,0-1,0.2-1,0.7c0,0.3-0.1,0.8-0.1,1.9v1c0,1.4-0.2,2.4-0.9,3.1c-0.5,0.6-1.3,0.8-2.1,0.8
				c-0.7,0-1.4-0.2-1.9-0.6c-0.7-0.5-1-1.4-1-2.8v-3c0-1.1-0.1-1.1-1-1.2v-0.3h3.1v0.3c-0.9,0.1-1,0.1-1,1.2v2.7c0,1.9,0.8,3,2.2,3
				c1.7,0,2.3-1.4,2.3-3.4v-0.9c0-1.1,0-1.6-0.1-2c-0.1-0.5-0.3-0.6-1.2-0.7v-0.3h2.8V140.9z"/>
			<path class="st4" d="M168.7,142.4c-0.2-0.8-0.5-1.6-1.6-1.6c-0.9,0-1.3,0.7-1.3,1.3c0,0.9,0.6,1.3,1.5,1.8c0.9,0.5,2.1,1,2.1,2.4
				c0,1.3-1.1,2.3-2.6,2.3c-0.5,0-0.9-0.1-1.2-0.2c-0.3-0.1-0.5-0.2-0.6-0.2c-0.1-0.3-0.2-1.3-0.3-1.8l0.3-0.1
				c0.2,0.7,0.7,1.9,2,1.9c0.9,0,1.4-0.6,1.4-1.4c0-0.9-0.7-1.3-1.5-1.8c-0.8-0.4-2-1-2-2.3c0-1.1,0.9-2.1,2.5-2.1
				c0.5,0,1,0.1,1.5,0.3c0,0.4,0.1,0.9,0.2,1.6L168.7,142.4z"/>
			<path class="st4" d="M175.7,140.6c1.5,0,2.6,0.3,3.4,1c0.6,0.6,1,1.4,1,2.6c0,1.4-0.5,2.5-1.5,3.2c-0.9,0.7-2.1,1-3.5,1h-2.8V148
				c1-0.1,1.1-0.1,1.1-1.2v-4.8c0-1-0.1-1.1-1-1.1v-0.3H175.7z M174.4,146.8c0,0.9,0.4,1.1,1.3,1.1c2.2,0,3.3-1.7,3.3-3.6
				c0-1.2-0.5-2.3-1.4-2.8c-0.5-0.3-1.2-0.5-2-0.5c-0.5,0-0.8,0.1-0.9,0.1c-0.1,0.1-0.2,0.2-0.2,0.7V146.8z"/>
			<path class="st4" d="M188.7,140.9c-0.7,0-1,0.2-1,0.7c0,0.3-0.1,0.8-0.1,1.9v1c0,1.4-0.2,2.4-0.9,3.1c-0.5,0.6-1.3,0.8-2.1,0.8
				c-0.7,0-1.4-0.2-1.9-0.6c-0.7-0.5-1-1.4-1-2.8v-3c0-1.1-0.1-1.1-1-1.2v-0.3h3.1v0.3c-0.9,0.1-1,0.1-1,1.2v2.7c0,1.9,0.8,3,2.2,3
				c1.7,0,2.3-1.4,2.3-3.4v-0.9c0-1.1,0-1.6-0.1-2c-0.1-0.5-0.3-0.6-1.2-0.7v-0.3h2.8V140.9z"/>
			<path class="st4" d="M194.8,146.5c-0.1,0.4-0.3,1.5-0.4,1.9H189V148c1-0.1,1.1-0.2,1.1-1.2v-4.8c0-1-0.1-1.1-1-1.1v-0.3h3.1v0.3
				c-0.9,0.1-1,0.1-1,1.1v4.7c0,0.6,0.1,0.9,0.3,1c0.2,0.1,0.6,0.2,1.1,0.2c0.7,0,1.1-0.1,1.3-0.4c0.2-0.2,0.4-0.6,0.6-1.2
				L194.8,146.5z"/>
			<path class="st4" d="M202.2,146.4c-0.2,0.5-0.5,1.4-0.7,1.8c-0.3,0.1-1.3,0.3-2.2,0.3c-3,0-4.3-2-4.3-3.9c0-2.5,1.9-4.2,4.6-4.2
				c1,0,1.8,0.3,2.1,0.3c0.1,0.7,0.2,1.2,0.2,1.8l-0.4,0.1c-0.3-1.3-1-1.8-2.3-1.8c-2,0-3.1,1.7-3.1,3.5c0,2.2,1.3,3.8,3.1,3.8
				c1.2,0,1.9-0.7,2.5-1.8L202.2,146.4z"/>
			<path class="st4" d="M202.6,148.4V148c1-0.1,1.1-0.1,1.1-1.2v-4.8c0-1-0.1-1.1-1.1-1.2v-0.3h3.2v0.3c-1,0.1-1.1,0.1-1.1,1.2v4.8
				c0,1,0.1,1.1,1.1,1.2v0.3H202.6z"/>
			<path class="st4" d="M210.4,142.4c-0.2-0.8-0.5-1.6-1.6-1.6c-0.9,0-1.3,0.7-1.3,1.3c0,0.9,0.6,1.3,1.5,1.8c0.9,0.5,2.1,1,2.1,2.4
				c0,1.3-1.1,2.3-2.6,2.3c-0.5,0-0.9-0.1-1.2-0.2c-0.3-0.1-0.5-0.2-0.6-0.2c-0.1-0.3-0.2-1.3-0.3-1.8l0.3-0.1
				c0.2,0.7,0.7,1.9,2,1.9c0.9,0,1.4-0.6,1.4-1.4c0-0.9-0.7-1.3-1.5-1.8c-0.8-0.4-2-1-2-2.3c0-1.1,0.9-2.1,2.5-2.1
				c0.5,0,1,0.1,1.5,0.3c0,0.4,0.1,0.9,0.2,1.6L210.4,142.4z"/>
			<path class="st4" d="M217,144.6h-2.7l0.2-0.7h2.7L217,144.6z"/>
		</g>
	</g>
</g>
</svg>
